module brifice

// +heroku goVersion go1.16
go 1.16

require (
	github.com/dgrijalva/jwt-go v3.2.0+incompatible // indirect
	github.com/gin-gonic/gin v1.7.2 // indirect
	github.com/go-playground/validator/v10 v10.7.0 // indirect
	github.com/golang/protobuf v1.5.2 // indirect
	github.com/jackc/pgx/v4 v4.12.0 // indirect
	github.com/joho/godotenv v1.3.0 // indirect
	github.com/json-iterator/go v1.1.11 // indirect
	github.com/leodido/go-urn v1.2.1 // indirect
	github.com/lib/pq v1.10.2 // indirect
	github.com/mattn/go-isatty v0.0.13 // indirect
	github.com/rs/cors v1.8.0 // indirect
	github.com/ugorji/go v1.2.6 // indirect
	golang.org/x/crypto v0.0.0-20210711020723-a769d52b0f97 // indirect
	golang.org/x/sys v0.0.0-20210630005230-0f9fa26af87c // indirect
	google.golang.org/protobuf v1.27.1 // indirect
	gopkg.in/go-playground/assert.v1 v1.2.1 // indirect
	gopkg.in/go-playground/validator.v9 v9.29.1 // indirect
	gopkg.in/yaml.v2 v2.4.0 // indirect
	gorm.io/driver/postgres v1.1.0 // indirect
	gorm.io/gorm v1.21.12 // indirect
)
